010,80,65,0	warp	010_80_65	0,0,010-3,57,43
010,73,62,0	warp	010_73_62	0,0,010-3,47,59
010,70,52,0	warp	010_70_52	0,0,010-2,94,30
010,58,52,0	warp	010_58_52	0,0,010-3,37,28
010,58,52,0	warp	010_58_52	0,0,010-3,37,28
010,70,81,0	warp	010_70_81	0,0,010-3,52,62
010,68,90,0	warp	010_68_90	0,0,010-3,45,70
010,156,93,0	warp	010_156_93	0,0,010-2,59,30
010,152,106,0	warp	010_152_106	0,0,010-2,29,31
010,148,106,0	warp	010_148_106	0,0,010-2,23,31
010,180,67,0	warp	010_180_67	0,1,navio010,21,24
010,142,63,0	warp	010_142_63	0,0,010-1,46,27
010,145,72,0	warp	010_145_72	0,0,010-1,51,57
010,75,34,0	warp	010_75_34	0,0,010-3,42,32
010,93,20,0	warp	010_93_20	2,0,froz,93,118
010,20,69,0	warp	010_20_69	0,2,010-4,178,69
010,168,65,0	warp	010_168_65	0,0,navio010,53,24
010,142,47,0	warp	010_142_47	0,0,010-1,45,20
010,49,55,0	warp	010_49_55	0,0,010-3,26,36
010,40,40,0	warp	010_40_40	1,0,coliseu001,124,222
010,41,24,0	warp	010_41_24	2,0,coliseu001,127,48
010,38,24,0	warp	010_38_24	2,0,coliseu001,124,48
