007-4,29,62,0	shop	Lady Gaba	NPC301,1202:2500,586:2500,632:5000,724:5000,735:5000,741:10000,688:15000,723:50000,564:60000,624:70000,720:80000,3048:90000,3267:100000,3222:50000,3101:200000,3035:100000
007-4,67,63,0	shop	Mina	NPC139,3075:30,3076:30,3077:30,676:100,562:125,539:87,3158:10
007-4,57,62,0	shop	Ravino	NPC147,521:10000,522:7000,579:3000000,3030:17000,3032:25000,3051:13000,3052:50000,3091:20000
