navio007,60,23,0	script	Baú#navio007	NPC111,{
    @npc$ = "Baú";
    @map$ = "navio007";
    @x = 60;
    @y = 24;
    mes "[" + strcharinfo(0) + "]";
    mes "\"Parece que não posso usá-lo aqui...\"";
    close;
}
