001b,22,119,0	warp	001b_22_119	1,0,004,80,20
001b,27,119,0	warp	001b_27_119	1,0,004,85,20
001b,32,120,0	warp	001b_32_120	1,0,004,90,21
001b,76,120,0	warp	001b_76_120	0,0,004,133,21
001b,80,120,0	warp	001b_80_120	0,0,004,137,21
001b,61,37,0	warp	001b_61_37	0,0,001-3,97,119
