
010-4,36,38,0	warp	010-4_36_38	0,0,010-4,26,24
010-4,26,22,0	warp	010-4_26_22	0,0,010-4,36,40
010-4,179,69,0	warp	010-4_179_69	0,1,010,21,69
010-4,156,42,0	warp	010-4_156_42	0,0,010-4,152,66
010-4,152,64,0	warp	010-4_152_64	0,0,010-4,156,44
010-4,153,42,0	warp	010-4_153_42	0,0,010-4,68,138
010-4,68,136,0	warp	010-4_68_136	0,0,010-4,153,44
010-4,95,131,0	warp	010-4_95_131	0,0,010-4,77,114
010-4,77,112,0	warp	010-4_77_112	0,0,010-4,95,133
010-4,103,79,0	warp	010-4_103_79	0,0,010-4,36,24
010-4,36,22,0	warp	010-4_36_22	0,0,010-4,103,81
010-4,94,34,0	warp	010-4_94_34	0,0,010-4,114,85
010-4,114,83,0	warp	010-4_114_83	0,0,010-4,94,36
010-4,43,68,0	warp	010-4_43_68	0,0,010-4,67,46
010-4,67,44,0	warp	010-4_67_44	0,0,010-4,43,70
010-4,58,81,0	warp	010-4_58_81	0,0,010-4,31,53
010-4,31,51,0	warp	010-4_31_51	0,0,010-4,58,83
010-4,91,89,0	warp	010-4_91_89	0,0,010-4,153,32
010-4,153,30,0	warp	010-4_153_30	0,0,010-4,91,91
010-4,39,75,0	warp	010-4_39_75	0,0,010-4,61,123
010-4,61,122,0	warp	010-4_61_122	0,0,010-4,39,77
010-4,90,67,0	warp	010-4_90_67	0,0,010-4,104,52
010-4,104,50,0	warp	010-4_104_50	0,0,010-4,90,69
010-4,61,135,0	warp	010-4_61_135	0,0,010-4,98,66
010-4,98,64,0	warp	010-4_98_64	0,0,010-4,61,137
