004,79,119,0	warp	004_79_119	3,0,007,79,20
004,109,120,0	warp	004_109_120	0,0,007,108,21
004,76,20,0	warp	004_76_20	2,0,001,76,119
004,80,19,0	warp	004_80_19	1,0,001b,22,118
004,85,19,0	warp	004_85_19	1,0,001b,27,118
004,90,20,0	warp	004_90_20	1,0,001b,32,119
004,134,20,0	warp	004_134_20	0,0,001b,75,119
004,138,20,0	warp	004_138_20	0,0,001b,79,119
004,151,19,0	warp	004_151_19	0,0,004,144,26
004,136,83,0	warp	004_136_83	0,0,004,144,26
004,137,88,0	warp	004_137_88	0,0,004,144,26
004,47,109,0	warp	004_47_109	0,0,004,45,104
004,45,105,0	warp	004_45_105	0,0,004,47,110
