
008,97,38,0	warp	sair-y	7,0,008,97,36
008,94,55,0	warp	sair+y	7,0,008,94,57
008,85,38,0	warp	sair-x	0,5,008,83,38
008,84,45,0	warp	sair-x	0,5,008,82,45
008,85,51,0	warp	sair-x	0,3,008,83,51
008,111,40,0	warp	sair+x	0,1,008,113,40
008,111,50,0	warp	sair+x	0,3,008,113,50
008,97,36,0	warp	entrar+y	7,0,008,97,38
008,94,57,0	warp	entrar-y	7,0,008,94,55
008,83,38,0	warp	entrar+x	0,5,008,85,38
008,82,45,0	warp	entrar+x	0,5,008,84,45
008,83,51,0	warp	entrar-x	0,3,008,85,51
008,113,40,0	warp	entrar-x	0,1,008,111,40
008,113,50,0	warp	entrar-x	0,3,008,111,50
008,37,96,0	warp	entrar-x	0,7,008,35,96
008,35,96,0	warp	sair+x	0,7,008,37,96
008,36,104,0	warp	entrar-x	0,5,008,34,104
008,34,104,0	warp	sair+x	0,5,008,36,104
008,109,117,0	warp	entrar+x	0,3,008,111,117
008,111,117,0	warp	sair-x	0,3,008,109,117
008,119,116,0	warp	entrar-x	0,3,008,117,116
008,117,116,0	warp	sair+x	0,3,008,119,116
