007-3,157,33,26,21	monster	Esqueleto Pirata	1305,3,0,0,Mob007-3::On1305
007-3,176,33,8,21	monster	Esqueleto Arqueiro	1304,2,0,0,Mob007-3::On1304
007-3,138,33,8,21	monster	Esqueleto Arqueiro	1304,2,0,0,Mob007-3::On1304
007-3,165,66,13,18	monster	Esqueleto Arqueiro	1304,3,0,0,Mob007-3::On1304
007-3,145,65,23,20	monster	Esqueleto Adaga	1303,6,0,0,Mob007-3::On1303
007-3,124,55,16,15	monster	Esqueleto Arqueiro	1304,3,0,0,Mob007-3::On1304
007-3,120,70,24,10	monster	Esqueleto	1302,4,0,0,Mob007-3::On1302


007-3,0,0,0	script	Mob007-3	NPC32767,{
    end;

On1302:
    @mobId = 1302;
    callfunc "MobPoints";
    end;

On1303:
    @mobId = 1303;
    callfunc "MobPoints";
    end;

On1304:
    @mobId = 1304;
    callfunc "MobPoints";
    end;

On1305:
    @mobId = 1305;
    callfunc "MobPoints";
    end;
}
