froz001,175,29,0	warp	froz001_175_29	0,0,froz,160,50
froz001,147,28,0	warp	froz001_147_28	0,0,froz,143,41
froz001,116,29,0	warp	froz001_116_29	0,0,froz,155,56
froz001,82,29,0	warp	froz001_82_29	0,0,froz,160,41
froz001,71,29,0	warp	froz001_71_29	0,0,froz,154,41
froz001,41,30,0	warp	froz001_41_30	0,0,froz,32,55
froz001,176,61,0	warp	froz001_176_61	0,0,froz,134,49
froz001,138,58,0	warp	froz001_138_58	0,0,froz,136,29
froz001,136,50,0	warp	froz001_136_50	0,0,froz001,104,58
froz001,134,50,0	warp	froz001_134_50	0,0,froz001,97,58
froz001,132,50,0	warp	froz001_132_50	0,0,froz001,90,58
froz001,104,59,0	warp	froz001_104_59	0,0,froz001,136,51
froz001,97,59,0	warp	froz001_97_59	0,0,froz001,134,51
froz001,90,59,0	warp	froz001_90_59	0,0,froz001,132,51
froz001,62,60,0	warp	froz001_62_60	0,0,froz,126,29
froz001,173,91,0	warp	froz001_173_91	0,0,froz,113,45
froz001,134,90,0	warp	froz001_134_90	0,0,froz,105,35
froz001,107,90,0	warp	froz001_107_90	0,0,froz,76,46
froz001,76,91,0	warp	froz001_76_91	0,0,froz,64,31
froz001,45,91,0	warp	froz001_45_91	0,0,froz,51,35
froz001,175,123,0	warp	froz001_175_123	0,0,froz,56,56
froz001,144,120,0	warp	froz001_144_120	0,0,froz,112,60
froz001,113,121,0	warp	froz001_113_121	0,0,froz,106,60
froz001,86,122,0	warp	froz001_86_122	0,0,froz,83,60
froz001,76,122,0	warp	froz001_76_122	0,0,froz,77,60
froz001,47,122,0	warp	froz001_47_122	0,0,froz,50,55
froz001,175,151,0	warp	froz001_175_151	0,0,froz001,46,114
froz001,46,113,0	warp	froz001_46_113	0,0,froz001,175,150
