function	script	limparDist	{
    DIST_loboSolitario = 0;
    DIST_pedraEncantada = 0;

    HALLOWEEN_evento = 0;
    HALLOWEEN_elias = 0;
    HALLOWEEN_juliana = 0;
    HALLOWEEN_joana = 0;
    HALLOWEEN2_nina = 0;
    morteferias = 0;
    morteferias_contagem2 = 0;
    morteferias_contagem = 0;
    HALLOWEEN2_item = 0;
    $HLW2_vetPlacar = 0;
    $HLW2_nomPlacar$ = "";
    $HLW2_numPlacar = 0;
    $HLW2_lvlPlacar = 0;
    bella = 0;
    NATAL_evento = 0;
    NATAL_pDourado = 0;
    NATAL_pRosa = 0;
    NATAL_pAzul = 0;
    NATAL_pVerde = 0;
    set NATAL_joana, 0; // Tem certeza que tem essa?
    PASCOA_questOvoComeu = 0;
    PASCOA_questOvo = 0;
    PASCOA_questOvoTipo = 0;
    PASCOA_questOvoCor = 0;
    PASCOA_questOvoCor2 = 0;
    PASCOA_questOvoPapel = 0;

    QUEST_trasgoRoxo = 0;
    QUEST_Foice = 0;
    esteChapeu = 0;
    QUEST_juliarco = 0;
    QUEST_juliflor = 0;
    QUEST_juliferrao = 0;
    QUEST_tortaMaca = 0;
    QUEST_tortaMacaTime = 0;
    QUEST_CorneliaVermes = 0;
    QUEST_presenteCasamento = 0;
    QUEST_pabloEscorpioes = 0;

    return;
}
