005,38,94,0	warp	005_38_94	0,0,005-3,46,154
005,25,94,0	warp	005_25_94	0,0,005-3,24,154
005,31,88,0	warp	005_31_88	0,0,005-3,35,144
005,71,25,0	warp	005_71_25	1,0,005-3,85,21
005,62,25,0	warp	005_62_25	1,0,005-3,71,21
005,159,23,0	warp	005_159_23	0,0,005-4,33,34
005,154,23,0	warp	005_154_23	0,0,005-4,26,34
005,62,86,0	warp	005_62_86	1,0,005-1,54,77
005,39,87,0	warp	005_39_87	0,0,005-3,49,143
005,22,19,0	warp	005_22_19	1,0,002,21,118
005,178,19,0	warp	005_178_19	1,0,002,177,118
005,48,24,0	warp	005_48_24	0,0,005-3,29,54
005,100,124,0	warp	005_100_124	7,0,008,99,25
