012,134,161,0	shop	lilica0	NPC32767,3080:500,3081:500,3082:500,3083:100,3084:100,3085:100
012,134,161,0	shop	lilica1	NPC32767,1256:25000,1217:1000000
012,134,161,0	shop	lilica2	NPC32767,1256:25000,1217:1000000,1255:50000,1214:2000000
012,134,161,0	shop	lilica3	NPC32767,1256:25000,1217:1000000,1255:50000,1214:2000000,3224:100000,1247:3000000
012,127,157,0	shop	bau	NPC32767,3009:999999999,781:999999999,1247:999999999,3066:999999999,3065:999999999,782:999999999,3220:999999999,760:999999999,3056:999999999,3008:999999999,3055:999999999,3221:999999999,3148:999999999,659:999999999,3093:999999999
