aeros,77,71,129,119	monster	Anjo	1373,40,300000,0,Mobaeros::On1373
aeros,87,84,129,119	monster	Arcanjo	1374,20,300000,0,Mobaeros::On1374
aeros,83,78,129,119	monster	Dodô	1375,7,300000,0,Mobaeros::On1375


aeros,0,0,0	script	Mobaeros	NPC32767,{
    end;

On1373:
    @mobId = 1373;
    callfunc "MobPoints";
    end;

On1374:
    @mobId = 1374;
    callfunc "MobPoints";
    end;

On1375:
    @mobId = 1375;
    callfunc "MobPoints";
    end;
}
