001,66,65,0	script	Menir da Alma	NPC144,{
    @map$ = "001";
    @x = 66;
    @y = 66;
    callfunc "SoulMenhir";
    close;
}

001,66,66,0	script	#menir001	NPC32767,1,1,{
    callfunc "limparDist";
    end;
}
