002-07,32,29,0	warp	002-07_32_29	2,0,002-06,52,26
002-07,32,27,0	warp	002-07_32_27	2,0,002-07,72,30
002-07,72,29,0	warp	002-07_72_29	2,0,002-07,32,26
002-07,64,33,0	warp	002-07_64_33	2,0,002,97,35
002-07,62,24,0	warp	002-07_62_24	2,0,002,96,23
